541174 680111 509
211765 240845 443
52664 388381 443
793811 286489 509
862480 883654 432
152553 77397 375
270858 94640 443
458061 111677 449
112307 168571 383
838943 684906 525
527583 191394 470
473890 743009 509
115413 650030 509
907279 788610 525
352462 465564 449
623513 962419 525
956345 91853 525
230684 103909 443
617595 968514 525
256780 630278 509
212729 627741 509
434266 769215 509
926587 735255 525
108104 98647 354
992962 122100 525
116435 273360 443
332786 610560 470
737555 188828 509
614605 639846 509
182677 924075 525
690624 407112 509
329604 851710 525
628234 195806 509
111982 638235 509
991168 333294 525
678870 684418 380
613264 96349 470
928052 332556 525
56730 766132 509
467444 602981 470
411273 688084 509
485049 680140 509
429365 535120 470
54484 261701 443
87117 403976 443
676818 526753 509
970892 775413 525
507371 164985 449
793142 204165 509
113845 117444 349
354311 168663 443
170152 535996 470
563217 401397 470
800412 618275 509
628180 763923 504
488516 846837 525
763897 635404 504
466230 915259 525
521019 469021 470
233185 128245 443
963264 140049 525
601349 103571 470
424144 995959 525
688489 387674 509
330236 854957 525
666095 324547 509
332015 426854 449
266152 461125 449
409109 851275 525
878849 663159 525
930338 625006 525
350855 412653 449
835431 14484 509
316175 18955 443
977350 600120 525
936648 366831 525
336827 617017 470
767455 542535 509
7100 91673 351
123016 136493 344
236522 973844 525
487740 455519 444
222485 322936 443
399341 66098 443
585553 357648 470
789777 310440 509
214159 454857 449
64210 637855 509
312541 659191 509
358714 217125 443
615684 387598 470
138153 185192 383
754503 221558 509
248163 38191 443
668312 417305 509
650275 850909 525
429316 448266 400
656010 141861 509
650269 913309 525
439401 195239 449
698681 90352 509
445977 609242 470
737547 799397 468
811132 156503 509
356000 406330 436
203989 664428 509
797729 502912 509
902544 76747 525
217249 852593 525
374330 957770 525
707057 401329 509
262226 769161 509
143702 205331 383
677146 449759 509
608750 832384 509
526447 957204 525
479087 729177 509
461242 323194 449
91871 488808 449
269167 732879 509
641292 317101 509
816091 96240 509
641713 144100 509
846344 569161 525
797388 147551 509
981138 117290 525
585403 450366 470
525678 957997 525
44358 558230 470
18477 128013 354
548722 267695 470
339979 414328 449
790355 417895 509
340371 380437 441
146387 450300 449
344900 735576 509
669183 283946 509
229993 926726 525
960735 527438 525
796150 680808 504
996315 679975 525
849769 854318 419
387976 304532 441
490119 401254 449
716547 390881 509
276685 532780 470
152358 232017 443
660796 226719 509
798030 550242 509
626823 803261 504
803557 875672 525
56521 629037 509
737208 688965 504
511630 398759 449
25586 956741 525
848689 128568 525
358318 884821 525
28582 57359 340
711825 111167 509
332895 973432 525
772313 147225 509
514387 428616 470
328824 545719 470
482951 442136 444
276184 940608 525
518685 447427 470
440822 448501 369
724837 195176 509
555261 746625 509
816266 637267 504
95095 331324 443
853238 528220 525
820898 306949 509
758560 493558 509
486314 749349 509
204307 51260 383
283304 540819 470
883872 825154 525
78660 973405 525
165186 86328 383
791222 577782 509
254665 725201 509
283917 67389 443
990556 658065 525
930409 588100 525
246639 540425 470
885971 963774 507
386684 365173 423
403392 915080 525
711844 555153 509
988963 545889 525
373487 704506 509
449262 319065 449
983285 337306 525
684303 56620 509
954399 978672 458
493741 592700 470
397478 411605 449
613463 717643 509
111133 483968 449
13200 223056 386
17029 104002 351
179154 29181 383
312551 533186 470
460816 742725 509
948819 283381 525
894403 917970 476
7463 905480 525
773837 863209 525
559910 440427 470
699432 499049 509
414912 413620 374
16072 221516 386
504768 300955 449
621708 713171 509
146669 543036 470
136591 107113 349
523803 785867 509
19236 385110 443
268832 849043 525
436123 129068 449
264693 152546 443
19809 496155 449
514263 481317 470
83879 462631 449
198411 694569 509
901130 211989 525
850376 164824 525
616935 231706 470
858491 41098 525
190182 573662 470
684328 266467 509
682899 927167 525
534525 582626 452
748315 741889 362
28497 813555 509
865468 6314 525
937435 229448 525
185653 440858 449
163438 362870 443
311036 137149 443
184058 541150 470
406337 992953 525
126849 729914 509
719725 399372 509
11074 411445 449
769737 874125 525
539188 470884 470
821804 801949 450
34860 453484 449
378970 708250 509
134630 109197 349
853172 462826 525
716014 218001 509
609317 142457 470
399169 136290 443
778026 818010 468
791189 849495 525
795554 992518 525
622684 229077 470
529502 535426 377
100584 125634 354
308078 762400 509
219137 564189 470
576664 714973 509
282694 505855 449
185230 237879 443
616985 526839 452
948806 996336 458
26607 505020 449
575425 78914 470
600090 804485 509
425521 427878 374
392929 440190 449
756556 484526 509
106282 154961 375
211835 656831 509
463912 517799 470
289093 697246 509
441045 315410 449
349335 637219 509
684981 546231 509
205520 119817 383
199442 986566 525
592851 374851 470
262020 624098 470
73469 56572 335
932121 353802 525
113302 345814 443
43672 39738 306
319476 712007 509
680719 935708 525
757519 252749 509
914747 104320 525
60749 342203 443
324519 57041 443
524856 51638 470
207601 914802 525
981175 848211 507
255379 83669 443
484547 361042 449
708260 30804 509
558507 536834 452
739334 570549 509
147312 518509 470
475488 45970 449
924485 486419 525
64205 360281 443
555441 881530 525
973008 17232 525
564038 986553 525
331045 559148 470
823418 404907 509
907017 549985 525
467497 83459 449
24126 111939 354
829283 32529 509
902034 255564 525
542359 774538 509
960820 555864 525
132373 81297 354
593744 105126 470
347706 122164 443
346001 675033 509
384651 895292 525
528078 853040 525
719183 792437 468
253184 936171 525
40716 719354 509
559111 841077 525
12117 844267 525
347516 256332 441
253951 981358 525
96451 107538 354
966244 322907 525
361460 410388 449
714362 468671 509
967437 336706 525
642816 474292 509
822083 453217 509
872586 555673 525
245187 795186 509
863832 923973 476
501567 356671 449
488313 996687 525
802730 770921 468
597169 669779 509
225732 767071 509
53378 108961 354
902674 633562 525
210552 947110 525
533698 321517 470
608202 274034 470
807899 686119 504
327869 272633 389
118172 368621 443
412493 411656 312
850826 327093 525
867381 131389 525
415899 838946 525
773536 218145 509
287108 290627 389
617108 928836 525
665404 851730 525
758515 607592 509
245592 726372 509
555254 688851 509
808924 107629 509
563223 184037 470
927782 827829 525
704297 78755 509
501869 220893 449
364653 504820 449
485860 422823 444
701062 644194 442
820515 438263 509
949448 753214 525
22782 52672 340
812865 604874 509
150677 218980 386
373894 510898 449
725277 809920 468
196302 747987 509
155565 148446 370
305340 80348 443
57928 583790 470
808422 27751 509
136803 192440 383
736097 431911 509
204355 271088 443
611742 309613 470
500391 869570 525
551269 887927 525
354439 222591 443
653168 574077 509
171161 223432 386
