622054 948280 525
252214 375778 441
387057 688692 509
511394 949811 525
882233 999590 507
361609 832818 509
121401 881227 525
333856 709513 509
863862 891046 445
548526 828680 509
52024 746738 509
399761 569901 470
430178 455160 400
979428 994975 427
960822 998651 458
982627 997789 427
292266 403656 441
367782 410104 449
762709 907016 525
820249 924261 525
873263 970122 507
829287 927661 525
762014 786613 468
536412 707600 509
920188 941544 507
811438 880527 525
719017 992512 525
241773 860579 525
295236 570413 470
573154 634083 509
513548 567292 452
725224 736659 424
698776 727264 504
715416 988130 525
669805 964406 525
435120 666020 509
792183 983854 525
799598 879244 525
745036 762298 424
890700 927130 476
606020 742729 509
728038 785134 468
349425 523577 470
403409 409044 405
898305 987046 507
248480 770456 509
129475 929072 525
520557 714923 509
449786 793208 509
110727 169787 383
611047 990935 525
151563 966345 525
254620 769049 509
280376 823476 509
405292 480749 449
393727 888145 525
77721 342675 443
972081 989549 427
996801 997986 440
764242 959713 525
2317 863566 525
351727 618046 470
943098 963398 414
851113 940299 507
82536 552878 470
471732 491263 413
484341 608668 470
290371 791572 509
234640 759984 509
857281 958431 507
394876 892763 525
573463 962552 525
891561 932408 476
556959 597143 434
262660 748088 509
369120 417124 449
541413 836637 509
472616 545296 470
747768 982280 525
376435 411959 449
282054 809021 509
70891 866252 525
896025 957695 507
188434 662335 509
375346 609973 470
211443 656199 509
97271 498257 449
307991 485026 449
234058 957036 525
606 291910 443
259557 545109 470
761384 908002 525
164984 539314 470
57469 954587 525
288136 479268 449
567107 804015 509
190809 471091 449
735516 857420 525
137754 965467 525
223066 329515 443
352206 789733 509
370668 876658 525
176960 844829 525
579003 827416 509
119813 439528 449
456886 758884 509
607893 671886 509
541246 643172 509
206763 289792 443
445421 825243 509
639859 796749 504
690778 693569 442
193698 855857 525
710358 847065 525
993450 995359 365
714580 985016 525
191065 621293 470
253067 848745 525
219922 401149 443
116410 411376 449
235712 548090 470
612307 795518 509
228116 835327 509
934345 952409 507
991004 998656 440
155001 297798 443
527055 947816 525
469379 634064 509
434068 857320 525
176721 395074 443
808326 839080 525
753991 772119 468
491317 695421 509
799837 934082 525
46038 439793 449
500877 797429 509
171944 934048 525
59638 110262 354
596580 721627 509
840380 957513 507
869598 955577 507
889904 988078 507
613600 821470 509
22107 125747 354
132874 222642 386
318592 797223 509
752731 969271 525
608400 689985 509
755929 877236 525
551107 755963 509
131069 341484 443
22938 597037 470
650487 726937 504
250464 278197 407
11130 823543 509
341168 400405 441
348723 584090 470
998998 999451 396
975504 995459 427
70661 813543 509
293152 849985 525
215376 410355 449
403206 992243 525
815889 930122 525
392210 528112 470
449846 834263 509
500954 716934 509
118444 670611 509
976444 981193 427
988987 994118 352
758907 792819 468
286217 483108 449
363917 999195 525
628541 822661 504
326489 940301 525
147918 939262 525
541853 791892 509
974668 976395 383
722884 724890 380
358860 759056 509
375060 980944 525
35549 707952 509
200626 747494 509
827168 966027 525
396118 520694 470
674438 960438 525
461422 918625 525
955173 971280 458
63272 717095 509
540559 836086 509
353316 529468 470
491054 902198 525
742373 997257 525
34232 265139 443
412963 946646 525
45640 943333 525
249685 957874 525
313173 381103 441
357383 700583 509
22135 621270 470
